#227 - Lisboa |

owner = A13
controller = A13
add_core = A13
add_core = A50
culture = old_alenic
religion = regent_court

hre = no

base_tax = 3
base_production = 3
base_manpower = 2

trade_goods = fur

capital = ""

is_city = yes








