#551 - Eonkavan

owner = F21
controller = F21
add_core = F21
culture = sun_elf
religion = bulwari_sun_cult

base_tax = 3
base_production = 3
base_manpower = 2

trade_goods = fish

capital = ""

is_city = yes











add_permanent_province_modifier = {
	name = human_minority_oppressed_large
	duration = -1
}