# No previous file for Poso
owner = F20
controller = F20
add_core = F20
culture = sun_elf
religion = bulwari_sun_cult

hre = no

base_tax = 3
base_production = 3
base_manpower = 2

trade_goods = coffee
center_of_trade = 1

capital = ""

is_city = yes












add_permanent_province_modifier = {
	name = human_minority_coexisting_large
	duration = -1
}
