# No previous file for Lanao
owner = F26
controller = F26
add_core = F26
culture = gelkar
religion = bulwari_sun_cult


base_tax = 2
base_production = 1
base_manpower = 1

trade_goods = wool

capital = ""

is_city = yes









