tuathak1_missions = {
	slot = 1 
	generic = no
	ai = yes 
	potential = {
		primary_culture = tuathak
	}
	
	tuathak_copper_mines = {
		icon = mission_zambezi_gold
		required_missions = { }
		position = 1
		
		trigger = {
			OR = {
				1118 = {
					base_production = 6
					has_production_building_trigger = yes
					owned_by = ROOT
				}
				1813 = {
					base_production = 6
					has_production_building_trigger = yes
					owned_by = ROOT
				}
			}
		}
		effect = {
			1118 = {
				if = {
					limit = {
						owned_by = ROOT
					}
					add_base_production = 2
					add_province_modifier = { name = "tuathak_copper_rush" duration = 7300}
				}
			}
			1813 = {
				if = {
					limit = {
						owned_by = ROOT
					}
					add_base_production = 2
					add_province_modifier = { name = "tuathak_copper_rush" duration = 7300}
				}
			}
		}
	}
	tuathak_prepare_praisegranting_festival = {
		icon = mission_rb_colonise_spice_islands
		required_missions = { }
		position = 3
		
		trigger = {
			capital_scope = {
				area_for_scope_province = {
					type = all
					owned_by = ROOT 
				}
				has_tax_building_trigger = yes
			}
			any_known_country = {
				OR = {
					capital_scope = {
						continent = europe
					}
					colonial_parent = {
						capital_scope = {
							continent = europe
						}
					}
				}
			}
			treasury = 60
		}
		effect = {
			add_treasury = -60
			add_dip_power = 25
			add_country_modifier = { name = "tuathak_festival_preparations" duration = 9125 }
		}
	}
	tuathak_host_the_festival = {
		icon = mission_discussion_arch
		required_missions = { tuathak_prepare_praisegranting_festival }
		position = 4
		
		trigger = {
			num_of_allies = 2
			OR = {
				num_accepted_cultures = 2
				government_rank = 3
			}
			dip_power = 100
		}
		effect = {
			add_dip_power = -100
			country_event = { id = eordand.17 }
			hidden_effect = { remove_country_modifier = tuathak_festival_preparations }
		}
	}
}
tuathak2_missions = {
	slot = 2
	generic = no
	ai = yes 
	potential = {
		primary_culture = tuathak
	}
	
	tuathak_iadth_transgressors = {
		icon = mission_face_off
		required_missions = { tuathak_rally_the_guard }
		position = 2
		
		trigger = {
			2050 = { owned_by = ROOT }
			2017 = { owned_by = ROOT }
			2016 = { owned_by = ROOT }
			2014 = { owned_by = ROOT }
			2003 = { owned_by = ROOT }
			NOT = { exists = H09 }
		}
		effect = {
			every_known_country = {
				limit = {
					primary_culture = tuathak
				}
				add_war_exhaustion = -2
				add_mil_power = 25
			}
			add_war_exhaustion = -2
			add_mil_power = 50
			raithlos_area = {
				limit = {
					NOT = { is_core = ROOT }
					NOT = { is_permanent_claim = ROOT }
				}
				add_permanent_claim = ROOT
			}
			sglolad_area = {
				limit = {
					NOT = { is_core = ROOT }
					NOT = { is_permanent_claim = ROOT }
				}
				add_permanent_claim = ROOT
			}
			ruigfar_area = {
				limit = {
					NOT = { is_core = ROOT }
					NOT = { is_permanent_claim = ROOT }
				}
				add_permanent_claim = ROOT
			}
			iadth_area = {
				limit = {
					NOT = { is_core = ROOT }
					NOT = { is_permanent_claim = ROOT }
				}
				add_permanent_claim = ROOT
			}
		}
	}
	tuathak_unite_the_northmarch = {
		icon = mission_unite_home_region
		required_missions = { 
			tuathak_iadth_transgressors
			tuathak_golden_acres
		}
		position = 3
		
		trigger = {
			raithlos_area = {
				owned_by = ROOT
				type = ROOT
			}
			sglolad_area = {
				owned_by = ROOT
				type = ROOT
			}
			ruigfar_area = {
				owned_by = ROOT
				type = ROOT
			}
			2015 = {
				owned_by = ROOT
			}
			2016 = {
				owned_by = ROOT
			}
			2050 = {
				owned_by = ROOT
			}
			2017 = {
				owned_by = ROOT
			}
		}
		effect = {
			add_country_modifier = { name = "tuathak_the_northern_march" duration = 9125 }
			eordand_superregion = {
				limit = {
					culture = tuathak
					NOT = { owned_by = ROOT }
					NOT = { is_core = ROOT }
					NOT = { is_permanent_claim = ROOT }
				}
				add_permanent_claim = ROOT
			}
		}
	}
	tuathak_march_into_spring = {
		icon = mission_unite_rajputana
		required_missions = { 
			tuathak_unite_the_northmarch
		}
		position = 4
		
		trigger = {
			2013 = {
				owned_by = ROOT
			}
			darhan_area = {
				owned_by = ROOT
			}
		}
		effect = {
			trasand_area = {
				limit = {
					NOT = { is_core = ROOT }
					NOT = { is_permanent_claim = ROOT }
				}
				add_permanent_claim = ROOT
			}
			monkast_area = {
				limit = {
					NOT = { is_core = ROOT }
					NOT = { is_permanent_claim = ROOT }
				}
				add_permanent_claim = ROOT
			}
			pelodard_area = {
				limit = {
					NOT = { is_core = ROOT }
					NOT = { is_permanent_claim = ROOT }
				}
				add_permanent_claim = ROOT
			}
			drisleak_area = {
				limit = {
					NOT = { is_core = ROOT }
					NOT = { is_permanent_claim = ROOT }
				}
				add_permanent_claim = ROOT
			}
			add_mil_power = 25
			add_prestige = 10
		}
	}
	tuathak_pretenders_of_pelomar = {
		icon = mission_rb_unite_the_clans
		required_missions = { tuathak_march_into_spring }
		position = 4
		provinces_to_highlight = {
			province_id = 2049
		}
		trigger = {
			owns_core_province = 2049
			NOT = { exists = H08 }
		}
		effect = {
			sidmargbal_area = {
				limit = {
					NOT = { is_core = ROOT }
					NOT = { is_permanent_claim = ROOT }
				}
				add_permanent_claim = ROOT
			}
			country_event = { id = eordand.3 }
		}
	}
}
tuathak3_missions = {
	slot = 3
	generic = no
	ai = yes 
	potential = {
		primary_culture = tuathak
	}
	
	tuathak_rally_the_guard = {
		icon = mission_consolidate_the_state
		required_missions = {  }
		position = 1
		
		trigger = {
			army_size_percentage = 1
		}
		effect = {
			add_country_modifier = {
				name = "thriving_arms_industry"
				duration = 9125 
			}
			2014 = {
				add_permanent_claim = ROOT
			}
		}
	}
	tuathak_golden_acres = {
		icon = mission_forest_shrine
		required_missions = { tuathak_rally_the_guard }
		position = 2
		
		trigger = {
			capital_scope = {
				area_for_scope_province = {
						type = all
						owned_by = ROOT 
				}
			}
			prestige = 30
		}
		effect = {
			capital_scope = {
				add_base_manpower = 1
				area = {
					limit = { owned_by = ROOT }
					add_province_modifier = {
						name = "tuathak_glade_of_warriors"
						duration = 9125 
					}
				}
			}
			add_army_tradition = 10
		}
	}
}
tuathak4_missions = {
	slot = 4
	generic = no
	ai = yes 
	potential = {
		primary_culture = tuathak
	}
	
	tuathak_aftermath_of_the_randrunnse_conquest = {
		icon = mission_protect_white_sea_trade
		required_missions = {  }
		position = 1
		
		trigger = {
			randrunnse_region = {
				is_city = yes 
				has_port = yes
				development = 14
				country_or_non_sovereign_subject_holds = ROOT
			}
		}
		effect = {
			random_province = {
				limit = {
					is_city = yes 
					has_port = yes
					region = randrunnse_region
					development = 13
					country_or_non_sovereign_subject_holds = ROOT
				}
				add_base_manpower = 1
			}
			add_adm_power = 25
			add_dip_power = 25
			add_mil_power = 25
		}
	}
	tuathak_resume_the_hibernal_crusade= {
		icon = mission_duel_snow
		required_missions = { 
			tuathak_rally_the_guard
			tuathak_aftermath_of_the_randrunnse_conquest 
		}
		position = 2
		
		
		trigger = {
			OR = {
				any_known_country = {
					primary_culture = snecboth
					war_with = ROOT
				}
				NOT = {
					any_known_country = {
						primary_culture = snecboth
					}
				}
			}
		}
		effect = {
			add_country_modifier = { name = "tuathak_driven_to_end_the_winter" duration = 9125 }
		}
	}
	tuathak_tame_the_savage_north = {
		icon = mission_scandinavian_port_authority
		required_missions = { tuathak_resume_the_hibernal_crusade }
		position = 3
		
		trigger = {
			OR = {
				AND = {
					1112 = { owned_by = ROOT }
					NOT = { exists = H18 }
				}
				AND = {
					1974 = { owned_by = ROOT }
					NOT = { exists = H17 }
				}
				AND = {
					1775 = { owned_by = ROOT }
					NOT = { exists = H16 }
				}
			}
		}
		effect = {
			fardach_area = {
				limit = {
					NOT = { is_core = ROOT }
					NOT = { is_permanent_claim = ROOT }
				}
				add_permanent_claim = ROOT
			}
			dartir_area = {
				limit = {
					NOT = { is_core = ROOT }
					NOT = { is_permanent_claim = ROOT }
				}
				add_permanent_claim = ROOT
			}
			gemradcurt_area = {
				limit = {
					NOT = { is_core = ROOT }
					NOT = { is_permanent_claim = ROOT }
				}
				add_permanent_claim = ROOT
			}
			medhan_area = {
				limit = {
					NOT = { is_core = ROOT }
					NOT = { is_permanent_claim = ROOT }
				}
				add_permanent_claim = ROOT
			}
			add_mil_power = 25
		}
	}
	tuathak_lone_north = {
		icon = mission_rb_conquer_the_highlands
		required_missions = { tuathak_tame_the_savage_north }
		position = 4
		
		trigger = {
			randrunnse_region = {
				is_city = yes
				owned_by = ROOT
				type = all
			}
		}
		effect = {
			add_prestige = 25
			add_country_modifier = { name = "tuathak_crusade_victorious" duration = 9125 }
		}
	}
	tuathak_end_winters_tyranny = {
		icon = mission_hanged_tree
		required_missions = { 
			tuathak_lone_north 
		}
		position = 5
		
		trigger = {
			NOT = { has_country_flag = tuathak_redeem }
			custom_trigger_tooltip = {
				tooltip = EORDAND_Snecboth_Diaspora
				NOT = {
					eordand_superregion = {
						culture = snecboth
						is_city = yes
						NOT = { owned_by = ROOT }
					}
				}
			}
			NOT = {
				average_autonomy = 25
			}
			1775 = {
				has_fort_building_trigger = yes
			}
			adm_power = 150
			dip_power = 150
			mil_power = 150
		}
		effect = {
			add_adm_power = -150
			add_dip_power = -150
			add_mil_power = -150
			every_owned_province = {
				limit = {
					culture = snecboth
				}
				random = {
					chance = 90
					
					change_culture = tuathak
					change_religion = ROOT
				}
			}
			add_country_modifier = { name = "tuathak_purger_of_winter" duration = 21900 }
			hidden_effect = { set_country_flag = tuathak_purge }
		}
	}
}
tuathak5_missions = {
	slot = 5
	generic = no
	ai = yes 
	potential = {
		primary_culture = tuathak
	}
	
	tuathak_redeem_the_snecboth = {
		icon = mission_alliances
		required_missions = { 
			tuathak_lone_north
		}
		position = 5
		
		trigger = {
			NOT = { has_country_flag = tuathak_purge }
			custom_trigger_tooltip = {
				tooltip = EORDAND_Snecboth_Diaspora
				NOT = {
					eordand_superregion = {
						culture = snecboth
						is_city = yes
						NOT = { owned_by = ROOT }
					}
				}
			}
			OR = {
				accepted_culture = snecboth
				government_rank = 3
			}
			development_in_provinces = {
					value = 100
					culture = snecboth
			}
		}
		effect = {
			add_country_modifier = { name = "tuathak_redemption_of_snecboth" duration = 21900 }
			every_owned_province = {
				limit = {
					culture = snecboth
				}
				random = {
					chance = 50
					
					add_province_modifier = { name = "tuathak_loyal_snecboth" duration = 9125 }
				}
			}
			hidden_effect = { set_country_flag = tuathak_redeem }
		}
	}
	
	
}