namespace = corinite

# The Corinite Reformation
country_event = {
	id = corinite.1
	title = corinite.1.t
	desc = corinite.1.d
	picture = RELIGION_eventPicture
	
	major = yes
	fire_only_once = yes
	
	trigger = {
		capital_scope = { superregion = escann_superregion NOT = { region = alenic_reach_region } }
		NOT = { is_religion_enabled = corinite }
		religion = regent_court
		is_defender_of_faith = no	
		NOT = { has_reform = papacy_reform }
	#	reform_desire = 0.95
		#is_year = 1550
		#is age of greentide
		has_global_flag = "castellos_is_dead"
		any_owned_province = {
			can_have_center_of_reformation_trigger = {
				RELIGION = corinite
			}
		}
	}
	
	mean_time_to_happen = {
		months = 625 #625
		
		modifier = {
			factor = 0.4
			tag = B02 #Corintar
		}
		
		modifier = {
			factor = 0.5
			has_personal_deity = corin
		}
		
		modifier = {
			factor = 0.3
			OR = {
				capital_scope = { region = west_castanor_region}
				capital_scope = { region = south_castanor_region}
				capital_scope = { region = inner_castanor_region}
			}
			NOT = {
				OR = {
					culture_group = orcish
					culture_group = goblin
				}
			}
		}
		
		modifier = {
			factor = 0.6
			OR = {
				primary_culture = arbarani
				primary_culture = east_damerian
				primary_culture = gawedi
				primary_culture = vernman
				culture_group = escanni
			}
		}
		
		modifier = {
			factor = 0.75
			NOT = { num_of_cities = 10 }
		}
		# modifier = {
			# factor = 0.75
			# NOT = { num_of_cities = 2 }
		# }
		
		modifier = {
			factor = 0.75
			has_idea_group = innovativeness_ideas
		}
		modifier = {
			factor = 1.25
			has_idea_group = religious_ideas
		}
		modifier = {
			factor = 0.5
			num_of_rebel_controlled_provinces = 1
		}
		modifier = {
			factor = 2.0
			government = theocracy
		}
		modifier = {
			factor = 5
			OR = {
				tag = A74 #Nathalaire
				tag = B09 #House of Riches
				tag = B49 #Araionn
			}
		}
		modifier = {
			factor = 8
			OR = {
				culture_group = lencori	#cos they love Adean
				primary_culture = crownsman	#status quo was good for Ara money
			}
		}
		modifier = {
			factor = 10
			has_personal_deity = adean
		}
	}

	option = {
		name = "corinite.1.a"
		enable_religion = corinite
		random_owned_province = {
			limit = {
				can_have_center_of_reformation_trigger = {
					RELIGION = corinite
				}
			}
			change_religion = corinite
			add_reform_center = corinite
			add_permanent_province_modifier = {
				name = "religious_zeal_at_conv"
				duration = 9000
			}
		}
		capital_scope = {
			change_religion = corinite
			add_permanent_province_modifier = {
				name = "religious_zeal_at_conv"
				duration = 9000
			}
		}
		set_country_flag = "corinite_reformation" 
		
		hidden_effect = {
			every_country = {
				limit = {
					capital_scope = { continent = europe }
				}
				country_event = { id = corinite.2 days = 7300 }	#240 months aka 20 years #changed for testing, put it back to 7300
			}
			every_country = {
			#	limit = {
			#		capital_scope = { continent = europe }
			#	}
				country_event = { id = corinite.3 days = 7300 }
			}
		}
	}
}

# The Crimson Deluge
country_event = {
	id = corinite.2
	title = corinite.2.t
	desc = corinite.2.d
	picture = COMET_SIGHTED_eventPicture
	
	is_triggered_only = yes
	
	trigger = {
		is_religion_enabled = corinite
		any_owned_province = {
			OR = {
				region = alenic_frontier_region
				region = forlorn_vale_region
				region = esmaria_region
				region = east_dameshead_region
				region = the_borders_region
				superregion = escann_superregion
			}
		}
		NOT = { has_global_flag = crimson_deluge_is_over }
		# any_owned_province = {
			# can_have_center_of_reformation_trigger = {
				# RELIGION = corinite
			# }
		# }
	}
	
	mean_time_to_happen = {
		days = 1
	}
	
	immediate = {
		set_global_flag = crimson_deluge
		set_global_flag = crimson_deluge_is_actively_happening
		hidden_effect = {
			alenic_frontier_region = {
				add_permanent_province_modifier = {
					name = crimson_deluge_province
					duration = 3650
				}
			}
			forlorn_vale_region = {
				add_permanent_province_modifier = {
					name = crimson_deluge_province
					duration = 3650
				}
			}
			esmaria_region = {
				add_permanent_province_modifier = {
					name = crimson_deluge_province
					duration = 3650
				}
			}
			east_dameshead_region = {
				add_permanent_province_modifier = {
					name = crimson_deluge_province
					duration = 3650
				}
			}
			the_borders_region = {
				add_permanent_province_modifier = {
					name = crimson_deluge_province
					duration = 3650
				}
			}
			escann_superregion = {
				add_permanent_province_modifier = {
					name = crimson_deluge_province
					duration = 3650
				}
			}
		}
		hidden_effect = {
			country_event = {
				id = corinite.4 
				days = 3650 
			}	#10 years later
		}
	}

	#Rejection
	option = {
		name = "corinite.2.a"
		trigger = {
			religion = regent_court
		}
		ai_chance = {
			factor = 70
			modifier = {
				factor = 10
				has_personal_deity = adean
			}
			modifier = {
				factor = 5
				has_personal_deity = ara	#Adean's wife
			}
			modifier = {
				factor = 1.5
				ruler_has_personality = calm_personality
			}
			modifier = {
				factor = 1.5
				ruler_has_personality = careful_personality
			}
			modifier = {
				factor = 2
				ruler_has_personality = zealot_personality
			}
			modifier = {
				factor = 5
				OR = {
					tag = A74 #Nathalaire
					tag = B09 #House of Riches
					tag = B49 #Araionn
				}
			}
			modifier = {
				factor = 1.5
				OR = {
					capital_scope = { region = lencenor_region }
					capital_scope = { region = west_dameshead_region }
					capital_scope = { region = small_country_region }
					capital_scope = { region = dragon_coast_region }
					capital_scope = { region = damescrown_region }
					capital_scope = { region = esmaria_region }
				}
			}
		}
		add_stability = -2

		custom_tooltip = tooltip_remove_corin_personal_deity

		custom_tooltip = crimson_deluge_start_tooltip
	}
	
	#Accepting
	option = {
		name = "corinite.2.b"
		trigger = {
			religion = regent_court
		}
		ai_chance = {
			factor = 30
			modifier = {
				factor = 10
				has_personal_deity = corin
			}
			modifier = {
				factor = 100
				tag = B02
			}
			modifier = {
				factor = 5
				OR = {
					tag = B33	#Blademarches
					tag = B35	#Ancardia
					tag = A45	#Istralore
					tag = F16	#Ourdia
				}
			}
			modifier = {
				factor = 0
				tag = B58
			}
			modifier = {
				factor = 0
				government = theocracy
				NOT = { has_reform = magocracy_reform }
			}
			modifier = {
				factor = 0
				is_emperor = yes
			}
			modifier = {
				factor = 3
				OR = {
					capital_scope = { region = the_borders_region }			#heaviest rains here and also promoted HRE League War
					capital_scope = { region = east_dameshead_region }
				}
			}
			modifier = {
				factor = 3
				OR = {
					capital_scope = { region = west_castanor_region }
					capital_scope = { region = inner_castanor_region }
					capital_scope = { region = south_castanor_region }
				}
				OR = {
					NOT = { culture_group = orcish }
					NOT = { culture_group = goblin }
				}
			}
			modifier = {
				factor = 0.25
				OR = {
					culture_group = elven
					culture_group = gnomish
				}
			}
			modifier = {
				factor = 0.5
				OR = {
					culture_group = lencori
					primary_culture = crownsman
					primary_culture = esmari
				}
			}
			modifier = {
				factor = 1.3
				OR = {
					primary_culture = vernman	#Heroic cultures
					primary_culture = derannic
					primary_culture = arbarani
					culture_group = alenic
				}
			}
			modifier = {
				factor = 2
				personality = ai_militarist
			}
			modifier = {
				factor = 1.5
				ruler_has_personality = free_thinker_personality
			}
			modifier = {
				factor = 1.5
				ruler_has_personality = naive_personality
			}
			modifier = {
				factor = 2
				ruler_has_personality = sinner_personality
			}
			modifier = {
				factor = 2
				ruler_has_personality = tolerant_personality
			}
			modifier = {
				factor = 2
				ruler_has_personality = pious_personality
			}
		}
		change_religion = corinite
		random_owned_province = {
			limit = {
				can_have_center_of_reformation_trigger = {
					RELIGION = corinite
				}
			}
			change_religion = corinite
			add_reform_center = corinite
			add_permanent_province_modifier = {
				name = "religious_zeal_at_conv"
				duration = 9000
			}
		}
		capital_scope = {
			change_religion = corinite
			add_permanent_province_modifier = {
				name = "religious_zeal_at_conv"
				duration = 9000
			}
		}
		add_country_modifier = {
			name = "conversion_zeal"
			duration = 3650
		}
		reduce_stability_or_adm_power = yes

		custom_tooltip = crimson_deluge_start_tooltip
	}
	option = {
		name = "corinite.2.c"
		trigger = {
			NOT = { religion_group = cannorian }
		}
		reduce_stability_or_adm_power = yes

		custom_tooltip = crimson_deluge_start_tooltip
	}
	option = {
		name = "corinite.2.e"
		ai_chance = {
			factor = 1000
		}
		trigger = {
			religion = corinite
		}
		add_stability_or_adm_power = yes

		custom_tooltip = crimson_deluge_start_tooltip
	}
}

#notify others of the deluge
country_event = {
	id = corinite.3
	title = corinite.3.t
	desc = corinite.3.d
	picture = COMET_SIGHTED_eventPicture
	
	is_triggered_only = yes
	
	trigger = {
		any_owned_province = {
			continent = europe
		}
		OR = {
			NOT = { capital_scope = { continent = europe } }
			NOT = {
				any_owned_province = {
					OR = {
						region = alenic_frontier_region
						region = forlorn_vale_region
						region = esmaria_region
						region = east_dameshead_region
						region = the_borders_region
						superregion = escann_superregion
					}
				}
			}
		}
	}

	mean_time_to_happen = {
		days = 1
	}

	#Adeanic
	option = {
		name = "corinite.3.a"
		trigger = {
			religion = regent_court
		}
		custom_tooltip = crimson_deluge_start_tooltip
	}
	#Corinite
	option = {
		name = "corinite.3.b"
		trigger = {
			religion = corinite
		}
		custom_tooltip = crimson_deluge_start_tooltip
	}
	#Other
	option = {
		name = "corinite.3.c"
		trigger = {
			NOT = { religion_group = cannorian }
		}
		custom_tooltip = crimson_deluge_start_tooltip
	}
}

country_event = {
	id = corinite.4
	title = corinite.4.t
	desc = corinite.4.d
	picture = COMET_SIGHTED_eventPicture
	
	is_triggered_only = yes
	
	trigger = {
	#	has_global_flag = crimson_deluge_is_actively_happening
	#	has_country_modifier = crimson_deluge_country_modifier
	}

	immediate = {
		hidden_effect = {
			clr_global_flag = crimson_deluge_is_actively_happening
			set_global_flag = crimson_deluge_is_over
			alenic_frontier_region = {
				remove_province_modifier = crimson_deluge_province
			}
			forlorn_vale_region = {
				remove_province_modifier = crimson_deluge_province
			}
			esmaria_region = {
				remove_province_modifier = crimson_deluge_province
			}
			east_dameshead_region = {
				remove_province_modifier = crimson_deluge_province
			}
			the_borders_region = {
				remove_province_modifier = crimson_deluge_province
			}
			escann_superregion = {
				remove_province_modifier = crimson_deluge_province
			}
		}
	}

	mean_time_to_happen = {
		days = 1
	}

	#Adeanic
	option = {
		name = "corinite.4.a"
		trigger = {
			religion = regent_court
		}
		custom_tooltip = crimson_deluge_end_tooltip
	}
	#Corinite
	option = {
		name = "corinite.4.b"
		trigger = {
			religion = corinite
		}
		custom_tooltip = crimson_deluge_end_tooltip
	}
	#Other
	option = {
		name = "corinite.4.c"
		trigger = {
			NOT = { religion_group = cannorian }
		}
		custom_tooltip = crimson_deluge_end_tooltip
	}
}