
namespace = flavor_istralore

#Corinites in the Imperial Army
country_event = {
	id = flavor_istralore.1
	title = flavor_istralore.1.t
	desc = flavor_istralore.1.d
	picture = LAND_MILITARY_eventPicture
	
	fire_only_once = yes
	
	trigger = {
		tag = A45
		is_religion_enabled = corinite
		current_age = age_of_reformation
		
		NOT = { religion = corinite }
	}
	
	mean_time_to_happen = {
		months = 100
		
		modifier = {
			factor = 0.5
			any_owned_province = { 
				religion = corinite
			}
		}
		
		modifier = {
			factor = 0.1
			any_owned_province = { 
				religion = corinite
				is_reformation_center = yes
			}
		}
	}
	
	#Convert the entire country
	option = {
		name = flavor_istralore.1.a
		ai_chance = {
			factor = 60
			modifier = {
				factor = 10000
				has_personal_deity = corin
			}
			modifier = {
				factor = 2
				ruler_has_personality = zealot_personality
			}
			modifier = {
				factor = 2
				mil = 3
			}
			modifier = {
				factor = 0.8
				is_emperor = yes
			}
			modifier = {
				factor = 2
				personality = ai_militarist
			}
			modifier = {
				factor = 1.5
				ruler_has_personality = free_thinker_personality
			}
		}
		change_religion = corinite
		
		capital_scope = {
			change_religion = corinite
			add_reform_center = corinite
			add_permanent_province_modifier = {
				name = "religious_zeal_at_conv"
				duration = 9000
			}
		}
		add_country_modifier = {
			name = "conversion_zeal"
			duration = 3650
		}
		
		add_ruler_modifier = { 
			name = istralore_support_of_the_corinite_military
			duration = -1  
		}
	}
	
	#Corinite Crusaders revolt
	option = {
		name = flavor_istralore.1.b
		ai_chance = {
			factor = 40
			modifier = {
				factor = 10000
				has_personal_deity = adean
			}
			modifier = {
				factor = 1.5
				ruler_has_personality = calm_personality
			}
			modifier = {
				factor = 1.5
				ruler_has_personality = careful_personality
			}
		}
		
		random_owned_province = {
			limit = {
				religion_group = cannorian
				is_core = ROOT 
				development = 10
				is_capital = no
			}
			change_religion = corinite
			spawn_rebels = {
				type = corinite_rebels
				size = 3
				win = yes
			}
		}
		
	}

}

country_event = {
	id = flavor_istralore.2
	title = flavor_istralore.2.t
	desc = flavor_istralore.2.d
	picture = HARBOUR_eventPicture
	
	is_triggered_only = yes
	
	option = {
		name = flavor_istralore.2.a
		define_admiral = {
			name = "Thalanor Seamoon"
			fire = 3
			shock = 5
			manuever = 6
			siege = 2
			trait = level_headed_personality
		}
	}
}

country_event = {
	id = flavor_istralore.3
	title = flavor_istralore.3.t
	desc = flavor_istralore.3.d
	picture = BAD_WITH_MONARCH_eventPicture
	
	is_triggered_only = yes
	
	option = {
		ai_chance = {
			factor = 1
		}
		name = flavor_istralore.3.a
		A30 = {
			country_event = {
				id = flavor_istralore.4
			}
		}
		tooltip = {
		IF = {
			limit = {
				A30 = { owns = 301 }
			}
			301 = { cede_province = A37 }
		}
		IF = {
			limit = {
				A30 = { owns = 576 }
			}
			576 = { cede_province = A93 }
		}
		IF = {
			limit = {
				A30 = { owns = 44 }
			}
			44 = { cede_province = A93 }
		}
		IF = {
			limit = {
				A30 = { owns = 280 }
			}
			280 = { cede_province = A93 }
		}
		IF = {
			limit = {
				A30 = { owns = 297 }
			}
			297 = { cede_province = A93 }
		}
		IF = {
			limit = {
				A30 = { owns = 307 }
			}
			307 = { cede_province = A34 }
		}
		IF = {
			limit = {
				A30 = { owns = 903 }
			}
			903 = { cede_province = Z04 }
		}
		IF = {
			limit = {
				A30 = { owns = 318 }
			}
			318 = { cede_province = A48 }
		}
		IF = {
			limit = {
				A30 = { owns = 907 }
			}
			907 = { cede_province = A48 }
		}
		IF = {
			limit = {
				A30 = { owns = 319 }
			}
			319 = { cede_province = A48 }
		}
		IF = {
			limit = {
				A30 = { owns = 918 }
			}
			918 = { cede_province = A48 }
		}
		IF = {
			limit = {
				A30 = { owns = 920 }
			}
			920 = { cede_province = A75 }
		}
		IF = {
			limit = {
				A30 = { owns = 321 }
			}
			321 = { cede_province = A75 }
		}
		IF = {
			limit = {
				A30 = { owns = 312 }
			}
			312 = { cede_province = A75 }
		}
		IF = {
			limit = {
				A30 = { owns = 326 }
			}
			326 = { cede_province = A75 }
		}
		IF = {
			limit = {
				A30 = { owns = 902 }
			}
			902 = { cede_province = A60 }
		}
		IF = {
			limit = {
				A30 = { owns = 310 }
			}
			310 = { cede_province = A60 }
		}
		IF = {
			limit = {
				A30 = { owns = 311 }
			}
			311 = { cede_province = A60 }
		}
		IF = {
			limit = {
				A30 = { owns = 320 }
			}
			320 = { cede_province = A60 }
		}
		IF = {
			limit = {
				A30 = { owns = 313 }
			}
			313 = { cede_province = A72 }
		}
		IF = {
			limit = {
				A30 = { owns = 418 }
			}
			418 = { cede_province = A72 }
		}
		IF = {
			limit = {
				A30 = { owns = 419 }
			}
			419 = { cede_province = A72 }
		}
		IF = {
			limit = {
				A30 = { owns = 904 }
			}
			904 = { cede_province = A72 }
		}
		IF = {
			limit = {
				A30 = { owns = 325 }
			}
			325 = { cede_province = A72 }
		}
		IF = {
			limit = {
				A30 = { owns = 302 }
			}
			302 = { cede_province = A92 }
		}
		IF = {
			limit = {
				A30 = { owns = 901 }
			}
			901 = { cede_province = A92 }
		}
		IF = {
			limit = {
				A30 = { owns = 309 }
			}
			309 = { cede_province = A99 }
		}
		IF = {
			limit = {
				A30 = { owns = 308 }
			}
			308 = { cede_province = A73 }
		}
		IF = {
			limit = {
				A30 = { owns = 912 }
			}
			912 = { cede_province = A73 }
		}
		IF = {
			limit = {
				A30 = { owns = 579 }
			}
			579 = { cede_province = A34 }
		}
		IF = {
			limit = {
				A30 = { owns = 300 }
			}
			300 = { cede_province = A34 }
		}
		}
	}

	option = {
		ai_chance = {
			factor = 0
		}
		name = flavor_istralore.3.b
	}
}

country_event = {
	id = flavor_istralore.4
	title = flavor_istralore.4.t
	desc = flavor_istralore.4.d
	picture = BAD_WITH_MONARCH_eventPicture
	
	is_triggered_only = yes
	
	option = {
		ai_chance = {
			factor = 1
		}
		name = flavor_istralore.4.a
		IF = {
			limit = {
				A30 = { owns = 301 }
			}
			301 = { cede_province = A37 }
		}
		IF = {
			limit = {
				A30 = { owns = 576 }
			}
			576 = { cede_province = A93 }
		}
		IF = {
			limit = {
				A30 = { owns = 44 }
			}
			44 = { cede_province = A93 }
		}
		IF = {
			limit = {
				A30 = { owns = 280 }
			}
			280 = { cede_province = A93 }
		}
		IF = {
			limit = {
				A30 = { owns = 297 }
			}
			297 = { cede_province = A93 }
		}
		IF = {
			limit = {
				A30 = { owns = 307 }
			}
			307 = { cede_province = A34 }
		}
		IF = {
			limit = {
				A30 = { owns = 903 }
			}
			903 = { cede_province = Z04 }
		}
		IF = {
			limit = {
				A30 = { owns = 318 }
			}
			318 = { cede_province = A48 }
		}
		IF = {
			limit = {
				A30 = { owns = 907 }
			}
			907 = { cede_province = A48 }
		}
		IF = {
			limit = {
				A30 = { owns = 319 }
			}
			319 = { cede_province = A48 }
		}
		IF = {
			limit = {
				A30 = { owns = 918 }
			}
			918 = { cede_province = A48 }
		}
		IF = {
			limit = {
				A30 = { owns = 920 }
			}
			920 = { cede_province = A75 }
		}
		IF = {
			limit = {
				A30 = { owns = 321 }
			}
			321 = { cede_province = A75 }
		}
		IF = {
			limit = {
				A30 = { owns = 312 }
			}
			312 = { cede_province = A75 }
		}
		IF = {
			limit = {
				A30 = { owns = 326 }
			}
			326 = { cede_province = A75 }
		}
		IF = {
			limit = {
				A30 = { owns = 902 }
			}
			902 = { cede_province = A60 }
		}
		IF = {
			limit = {
				A30 = { owns = 310 }
			}
			310 = { cede_province = A60 }
		}
		IF = {
			limit = {
				A30 = { owns = 311 }
			}
			311 = { cede_province = A60 }
		}
		IF = {
			limit = {
				A30 = { owns = 320 }
			}
			320 = { cede_province = A60 }
		}
		IF = {
			limit = {
				A30 = { owns = 313 }
			}
			313 = { cede_province = A72 }
		}
		IF = {
			limit = {
				A30 = { owns = 418 }
			}
			418 = { cede_province = A72 }
		}
		IF = {
			limit = {
				A30 = { owns = 419 }
			}
			419 = { cede_province = A72 }
		}
		IF = {
			limit = {
				A30 = { owns = 904 }
			}
			904 = { cede_province = A72 }
		}
		IF = {
			limit = {
				A30 = { owns = 325 }
			}
			325 = { cede_province = A72 }
		}
		IF = {
			limit = {
				A30 = { owns = 302 }
			}
			302 = { cede_province = A92 }
		}
		IF = {
			limit = {
				A30 = { owns = 901 }
			}
			901 = { cede_province = A92 }
		}
		IF = {
			limit = {
				A30 = { owns = 309 }
			}
			309 = { cede_province = A99 }
		}
		IF = {
			limit = {
				A30 = { owns = 308 }
			}
			308 = { cede_province = A73 }
		}
		IF = {
			limit = {
				A30 = { owns = 912 }
			}
			912 = { cede_province = A73 }
		}
		IF = {
			limit = {
				A30 = { owns = 579 }
			}
			579 = { cede_province = A34 }
		}
		IF = {
			limit = {
				A30 = { owns = 300 }
			}
			300 = { cede_province = A34 }
		}
		clr_country_flag = is_a_grand_duchy
		every_known_country = {
			limit = {
				is_part_of_hre = yes
			}
			country_event = {
				id = flavor_istralore.5
			}
		}
	}
}

country_event = {
	id = flavor_istralore.5
	title = flavor_istralore.5.t
	desc = flavor_istralore.5.d
	picture = GOOD_WITH_MONARCH_eventPicture
	
	is_triggered_only = yes
	
	option = {
		name = flavor_istralore.5.a
	}
}

country_event = {
	id = flavor_istralore.6
	title = flavor_istralore.6.t
	desc = flavor_istralore.6.d
	picture = DIPLOMACY_eventPicture
	
	is_triggered_only = yes
	
	option = {
		ai_chance = {
			factor = 1
		}
		name = flavor_istralore.6.a
		A45 = {
			country_event = {
				id = flavor_istralore.7
			}
		}
		284 = { cede_province = A45 }
		906 = { cede_province = A84 }
	}

	option = {
		ai_chance = {
			factor = 0
		}
		name = flavor_istralore.6.a
		A45 = {
			country_event = {
				id = flavor_istralore.8
			}
		}
	}
}

country_event = {
	id = flavor_istralore.7
	title = flavor_istralore.7.t
	desc = flavor_istralore.7.d
	picture = DIPLOMACY_eventPicture
	
	is_triggered_only = yes
	
	option = {
		ai_chance = {
			factor = 1
		}
		name = flavor_istralore.7.a
	}
}

country_event = {
	id = flavor_istralore.8
	title = flavor_istralore.8.t
	desc = flavor_istralore.8.d
	picture = DIPLOMACY_eventPicture
	
	is_triggered_only = yes
	
	option = {
		ai_chance = {
			factor = 1
		}
		name = flavor_istralore.8.a
	}
}

country_event = {
	id = flavor_istralore.9
	title = flavor_istralore.9.t
	desc = flavor_istralore.9.d
	picture = DIPLOMACY_eventPicture
	
	is_triggered_only = yes
	
	option = {
		ai_chance = {
			factor = 1
		}
		name = flavor_istralore.9.a
		A45 = {
			vassalize = A31
		}
	}
	
	option = {
		ai_chance = {
			factor = 0
		}
		name = flavor_istralore.9.b
	}
}

country_event = {
	id = flavor_istralore.10
	title = flavor_istralore.10.t
	desc = flavor_istralore.10.d
	picture = LAND_MILITARY_eventPicture
	
	is_triggered_only = yes
	
	option = {
		ai_chance = {
			factor = 1
		}
		name = flavor_istralore.10.a
		add_country_modifier = {
			name = "istralari_commanders_empire"
			duration = -1
		}
	}
}

country_event = {
	id = flavor_istralore.11
	title = flavor_istralore.11.t
	desc = flavor_istralore.11.d
	picture = LAND_MILITARY_eventPicture
	
	is_triggered_only = yes
	
	option = {
		ai_chance = {
			factor = 1
		}
		name = flavor_istralore.11.a
		add_treasury = 50
		add_manpower = -5
	}
}